{
    "name": "ws2811",
    "version": "1.0.0",
    "authors": [
        {
            "name": "Danny Havenith",
            "email": "dh.programming@havenith.net"
        }
    ],
    "repository": {
        "type": "git",
        "url": "https://gitlab.com/eastshore/dannyhavenithws2811.git"
    },
    "homepage": "http://rurandom.org/justintime/index.php?title=Driving_the_WS2811_at_800_kHz_with_an_8_MHz_AVR",
    "license": "Boost Software License 1.0",
    "platforms": ["atmelavr"],
    "frameworks": ["arduino"],
    "headers": [
        "ws2811/ws2811_8.h",
        "ws2811/ws2811_96.h",
        "ws2811/ws2811.h"
    ],
    "examples": [
        {
            "name": "Demo",
            "base": "demo",
            "files": [
                "ws2811_controller.cpp"
            ]
        },
        {
            "name": "Demo (low ram)",
            "base": "demo",
            "files": [
                "ws2811_controller_low_ram.cpp"
            ]
        }
    ],
    "build": {
        "includeDir": ".",
        "srcDir": ".",
        "srcFilter": "-<demo/*.*> +<ws2811/*.h*> +<effects/*> -<design/**> -<*>"
    }
}
